Synthetic NEWS Data • NHSRdatasets
…
SpO2 Oxygen Saturation (column sat)

NEWS_var |>
  mutate(news = case_when(
    sat <= 91 ~ 3,
    sat %in% c(92:93) ~ 2,
    sat %in% c(94:95) ~ 1,
    !is.numeric(sat) ~ NA_real_,
    TRUE ~ 0
  ))
#> # A tibble: 1,000 × 13
#>     male   age  NEWS  syst  dias  temp pulse  resp   sat   sup alert  died  news
#>    <int> <int> <int> <int> <int> <dbl> <int> <int> <int> <int> <int> <int> <dbl>
#>  1     0    68     3   150    98  36.8    78    26    96     0     0     0     0
#>  2     1    94     1   145    67  35      62    18    96     0     0     0     0
#>  3     0    85     0   169    69  36.2    54    18    96     0     0     0     0
#>  4     1    44     0   154   106  36.9    80    17    96     0     0     0     0
#>  5     0    77     1   122    67  36.4    62    20    95     0     0     0     1
#>  6     0    58     1   146   106  35.3    73    20    98     0     0     0     0
#>  7     0    25     4    65    42  35.6    72    12    99     0     0     0     0
#>  8     0    69     0   116    56  37.2    90    16    97     0     0     0     0
#>  9     0    91     1   162    72  35.5    60    16    99     0     0     0     0
#> 10     0    70     1   132    96  35.3    67    16    97     0     0     0     0
#> # ℹ 990 more rows

Temperature (column temp)

NEWS_var |>
  mutate(news = case_when(
    temp <= 35 ~ 3,
    temp >= 39.1 ~ 2,
    temp %in% c(38.1:39, 35.1:36) ~ 1,
    !is.numeric(temp) ~ NA_real_,
    TRUE ~ 0
  ))
#> # A tibble: 1,000 × 13
#>     male   age  NEWS  syst  dias  temp pulse  resp   sat   sup alert  died  news
#>    <int> <int> <int> <int> <int> <dbl> <int> <int> <int> <int> <int> <int> <dbl>
#>  1     0    68     3   150    98  36.8    78    26    96     0     0     0     0
#>  2     1    94     1   145    67  35      62    18    96     0     0     0     3
#>  3     0    85     0   169    69  36.2    54    18    96     0     0     0     0
#>  4     1    44     0   154   106  36.9    80    17    96     0     0     0     0
#>  5     0    77     1   122    67  36.4    62    20    95     0     0     0     0
#>  6     0    58     1   146   106  35.3    73    20    98     0     0     0     0
#>  7     0    25     4    65    42  35.6    72    12    99     0     0     0     0
#>  8     0    69     0   116    56  37.2    90    16    97     0     0     0     0
#>  9     0    91     1   162    72  35.5    60    16    99     0     0     0     0
#> 10     0    70     1   132    96  35.3    67    16    97     0     0     0     0
#> # ℹ 990 more rows
…
